Aviation Traffic Analysis and Monte Carlo Numerical Integration
…
  "DEN", 2020, 33741129,
  "DEN", 2021, 58828552,
  "DEN", 2022, 69286461,
  "DEN", 2023, 77837917,
  "DEN", 2024, 82358744,
  "DEN", 2025, 82427962
)

airports

# A tibble: 36 × 3
   airport  year passengers
   <chr>   <dbl>      <dbl>
 1 ATL      2020   42918685
 2 ATL      2021   75704760
 3 ATL      2022   93699630
 4 ATL      2023  104653451
 5 ATL      2024  108067766
 6 ATL      2025  106302208
 7 FRA      2020   18768601
 8 FRA      2021   24812849
 9 FRA      2022   48918482
10 FRA      2023   59355389
# ℹ 26 more rows
…
